weird oscilator: :)

x                   
x x                   
                x     
                x     
                x x   
                      
        x x x     x x 
            x   x   x 
                x x   
play god...
diff: 6
--------------------------------------------------------------------------------
                      
x x                   
x x                   
                      
              x x     
                x x   
          x     x   x 
          x x x   x x 
            x   x   x 
              x x x   
play god...
diff: 2
--------------------------------------------------------------------------------
                      
x x                   
x x                   
                      
              x x x   
                      
          x         x 
          x         x 
          x         x 
              x x x   

